0004   : 34 56  78 00
0008   : DC 00  00 12
000C   : 00 AB  BA CD
0010   : 00 00  CD DC
0014   : 00 CD  DC 00
0018   : DC 00  00 00
001C   : 00 00  00 CD
0020   : 00 00  00 DC
0024   : 00 00  DC 00
0028   : 00 DC  00 00
002C   : DC 00  00 00
0030   : 00 00  00 00
0034   : 12 34  56 78
0038   : 00 00  00 00
003C   : 00 00  CD DC
0040   : 00 00  CD DC
0044   : 00 00  CD DC
0048   : 00 00  00 DC
004C   : 00 00  00 DC
0050   : 00 00  00 DC
0054   : 00 00  00 DC
0058   : DC BA  2B CD