0004   : 00 00  02 00
0008   : 00 00  00 00
000C   : 00 00  00 06
0010   : 96 00  00 38
0014   : 00 00  00 01
0018   : 00 00  00 02
001C   : 00 00  00 0A
0020   : 00 00  00 2D
0024   : 78 2D  FF FF
0028   : 00 00  00 00